1,1,true,05.05.2020. 14:20,22.06.2020. 12:21,1,1 2 3 4 5 6,FINISHED
2,2,false,20.03.2020. 15:16,10.06.2020. 14:36,1,7 8 9 10 11 12,FINISHED
3,2,false,10.03.2020. 13:12,23.06.2020. 08:57,2,13 14 15 16 17 18,FINISHED
4,4,true,01.03.2020. 17:25,23.06.2020. 10:13,1,19 20 21 22 23 24,FINISHED
5,3,false,25.03.2020. 10:09,21.05.2020. 17:17,2,25 26 27 28 29 30,FINISHED
6,3,true,11.03.2020. 08:49,22.06.2020. 18:43,2,31 32 33 34 35,FINISHED
